…
``` r
anti_join(tagids, pit, by = c("tagid" = "scan"))
```

    ## # A tibble: 0 × 1
    ## # ... with 1 variables: tagid <chr>

What tags are in the scanner that are not in excel (type-os) - should return 0 rows

``` r
anti_join(pit, tagids, by = c("scan" = "tagid"))  
```

    ## # A tibble: 62 × 3
    ##               scan     date     time
    ##              <chr>    <chr>    <chr>
    ## 1  982000411818593 06/05/17 16:09:25
    ## 2  986112100168885 06/05/17 16:05:09
    ## 3  986112100164294 06/05/17 16:01:03
    ## 4  986112100168306 06/05/17 15:49:51
    ## 5  982000411818559 06/05/17 15:45:20
    ## 6  986112100162846 06/05/17 15:41:26
    ## 7  986112100172078 06/05/17 15:29:22
    ## 8  982000411818612 06/05/17 15:24:54
    ## 9  986112100168496 06/05/17 15:18:05
    ## 10 982000411818629 06/05/17 15:13:25
    ## # ... with 52 more rows
…
